%YAML 1.1
%TAG !u! tag:unity3d.com,2011:
--- !u!29 &1
OcclusionCullingSettings:
  m_ObjectHideFlags: 0
  serializedVersion: 2
  m_OcclusionBakeSettings:
    smallestOccluder: 5
    smallestHole: 0.25
    backfaceThreshold: 100
  m_SceneGUID: 00000000000000000000000000000000
  m_OcclusionCullingData: {fileID: 0}
--- !u!104 &2
RenderSettings:
  m_ObjectHideFlags: 0
  serializedVersion: 9
  m_Fog: 0
  m_FogColor: {r: 0.5, g: 0.5, b: 0.5, a: 1}
  m_FogMode: 3
  m_FogDensity: 0.01
  m_LinearFogStart: 0
  m_LinearFogEnd: 300
  m_AmbientSkyColor: {r: 0.212, g: 0.227, b: 0.259, a: 1}
  m_AmbientEquatorColor: {r: 0.114, g: 0.125, b: 0.133, a: 1}
  m_AmbientGroundColor: {r: 0.047, g: 0.043, b: 0.035, a: 1}
  m_AmbientIntensity: 1
  m_AmbientMode: 0
  m_SubtractiveShadowColor: {r: 0.42, g: 0.478, b: 0.627, a: 1}
  m_SkyboxMaterial: {fileID: 10304, guid: 0000000000000000f000000000000000, type: 0}
  m_HaloStrength: 0.5
  m_FlareStrength: 1
  m_FlareFadeSpeed: 3
  m_HaloTexture: {fileID: 0}
  m_SpotCookie: {fileID: 10001, guid: 0000000000000000e000000000000000, type: 0}
  m_DefaultReflectionMode: 0
  m_DefaultReflectionResolution: 128
  m_ReflectionBounces: 1
  m_ReflectionIntensity: 1
  m_CustomReflection: {fileID: 0}
  m_Sun: {fileID: 0}
  m_IndirectSpecularColor: {r: 0, g: 0, b: 0, a: 1}
  m_UseRadianceAmbientProbe: 0
--- !u!157 &3
LightmapSettings:
  m_ObjectHideFlags: 0
  serializedVersion: 11
  m_GIWorkflowMode: 1
  m_GISettings:
    serializedVersion: 2
    m_BounceScale: 1
    m_IndirectOutputScale: 1
    m_AlbedoBoost: 1
    m_EnvironmentLightingMode: 0
    m_EnableBakedLightmaps: 1
    m_EnableRealtimeLightmaps: 0
  m_LightmapEditorSettings:
    serializedVersion: 12
    m_Resolution: 2
    m_BakeResolution: 40
    m_AtlasSize: 1024
    m_AO: 0
    m_AOMaxDistance: 1
    m_CompAOExponent: 1
    m_CompAOExponentDirect: 0
    m_ExtractAmbientOcclusion: 0
    m_Padding: 2
    m_LightmapParameters: {fileID: 0}
    m_LightmapsBakeMode: 1
    m_TextureCompression: 1
    m_FinalGather: 0
    m_FinalGatherFiltering: 1
    m_FinalGatherRayCount: 256
    m_ReflectionCompression: 2
    m_MixedBakeMode: 2
    m_BakeBackend: 1
    m_PVRSampling: 1
    m_PVRDirectSampleCount: 32
    m_PVRSampleCount: 512
    m_PVRBounces: 2
    m_PVREnvironmentSampleCount: 256
    m_PVREnvironmentReferencePointCount: 2048
    m_PVRFilteringMode: 1
    m_PVRDenoiserTypeDirect: 1
    m_PVRDenoiserTypeIndirect: 1
    m_PVRDenoiserTypeAO: 1
    m_PVRFilterTypeDirect: 0
    m_PVRFilterTypeIndirect: 0
    m_PVRFilterTypeAO: 0
    m_PVREnvironmentMIS: 1
    m_PVRCulling: 1
    m_PVRFilteringGaussRadiusDirect: 1
    m_PVRFilteringGaussRadiusIndirect: 5
    m_PVRFilteringGaussRadiusAO: 2
    m_PVRFilteringAtrousPositionSigmaDirect: 0.5
    m_PVRFilteringAtrousPositionSigmaIndirect: 2
    m_PVRFilteringAtrousPositionSigmaAO: 1
    m_ExportTrainingData: 0
    m_TrainingDataDestination: TrainingData
    m_LightProbeSampleCountMultiplier: 4
  m_LightingDataAsset: {fileID: 0}
  m_UseShadowmask: 1
--- !u!196 &4
NavMeshSettings:
  serializedVersion: 2
  m_ObjectHideFlags: 0
  m_BuildSettings:
    serializedVersion: 2
    agentTypeID: 0
    agentRadius: 0.5
    agentHeight: 2
    agentSlope: 45
    agentClimb: 0.4
    ledgeDropHeight: 0
    maxJumpAcrossDistance: 0
    minRegionArea: 2
    manualCellSize: 0
    cellSize: 0.16666667
    manualTileSize: 0
    tileSize: 256
    accuratePlacement: 0
    debug:
      m_Flags: 0
  m_NavMeshData: {fileID: 0}
--- !u!1001 &41610769
PrefabInstance:
  m_ObjectHideFlags: 0
  serializedVersion: 2
  m_Modification:
    m_TransformParent: {fileID: 0}
    m_Modifications:
    - target: {fileID: -6953011812253155895, guid: 843f29d6e5754864483b725f9345f452,
        type: 3}
      propertyPath: m_StaticEditorFlags
      value: 0
      objectReference: {fileID: 0}
    - target: {fileID: -4714932428944194629, guid: 843f29d6e5754864483b725f9345f452,
        type: 3}
      propertyPath: m_StaticEditorFlags
      value: 4294967295
      objectReference: {fileID: 0}
    - target: {fileID: -4216859302048453862, guid: 843f29d6e5754864483b725f9345f452,
        type: 3}
      propertyPath: m_LocalPosition.x
      value: -0.329
      objectReference: {fileID: 0}
    - target: {fileID: -4216859302048453862, guid: 843f29d6e5754864483b725f9345f452,
        type: 3}
      propertyPath: m_LocalPosition.y
      value: 0.24763742
      objectReference: {fileID: 0}
    - target: {fileID: -4216859302048453862, guid: 843f29d6e5754864483b725f9345f452,
        type: 3}
      propertyPath: m_LocalPosition.z
      value: 2.001
      objectReference: {fileID: 0}
    - target: {fileID: -4216859302048453862, guid: 843f29d6e5754864483b725f9345f452,
        type: 3}
      propertyPath: m_LocalRotation.x
      value: 0
      objectReference: {fileID: 0}
    - target: {fileID: -4216859302048453862, guid: 843f29d6e5754864483b725f9345f452,
        type: 3}
      propertyPath: m_LocalRotation.y
      value: -0
      objectReference: {fileID: 0}
    - target: {fileID: -4216859302048453862, guid: 843f29d6e5754864483b725f9345f452,
        type: 3}
      propertyPath: m_LocalRotation.z
      value: -0
      objectReference: {fileID: 0}
    - target: {fileID: -4216859302048453862, guid: 843f29d6e5754864483b725f9345f452,
        type: 3}
      propertyPath: m_LocalRotation.w
      value: 1
      objectReference: {fileID: 0}
    - target: {fileID: -4216859302048453862, guid: 843f29d6e5754864483b725f9345f452,
        type: 3}
      propertyPath: m_RootOrder
      value: 7
      objectReference: {fileID: 0}
    - target: {fileID: -4216859302048453862, guid: 843f29d6e5754864483b725f9345f452,
        type: 3}
      propertyPath: m_LocalEulerAnglesHint.x
      value: 0
      objectReference: {fileID: 0}
    - target: {fileID: -4216859302048453862, guid: 843f29d6e5754864483b725f9345f452,
        type: 3}
      propertyPath: m_LocalEulerAnglesHint.y
      value: 0
      objectReference: {fileID: 0}
    - target: {fileID: -4216859302048453862, guid: 843f29d6e5754864483b725f9345f452,
        type: 3}
      propertyPath: m_LocalEulerAnglesHint.z
      value: 0
      objectReference: {fileID: 0}
    - target: {fileID: -2706689446118842515, guid: 843f29d6e5754864483b725f9345f452,
        type: 3}
      propertyPath: m_Materials.Array.data[0]
      value: 
      objectReference: {fileID: 2100000, guid: 459874532cc9f804dbeb1d0f89d435e2, type: 2}
    - target: {fileID: -927199367670048503, guid: 843f29d6e5754864483b725f9345f452,
        type: 3}
      propertyPath: m_Name
      value: Charmander
      objectReference: {fileID: 0}
    - target: {fileID: 6797899662941571490, guid: 843f29d6e5754864483b725f9345f452,
        type: 3}
      propertyPath: m_StaticEditorFlags
      value: 0
      objectReference: {fileID: 0}
    m_RemovedComponents: []
  m_SourcePrefab: {fileID: 100100000, guid: 843f29d6e5754864483b725f9345f452, type: 3}
--- !u!1001 &64543781
PrefabInstance:
  m_ObjectHideFlags: 0
  serializedVersion: 2
  m_Modification:
    m_TransformParent: {fileID: 0}
    m_Modifications:
    - target: {fileID: -4216859302048453862, guid: 84edcf22898bc784fbdb896bf20a8116,
        type: 3}
      propertyPath: m_LocalPosition.x
      value: -1.67
      objectReference: {fileID: 0}
    - target: {fileID: -4216859302048453862, guid: 84edcf22898bc784fbdb896bf20a8116,
        type: 3}
      propertyPath: m_LocalPosition.y
      value: 0.96310735
      objectReference: {fileID: 0}
    - target: {fileID: -4216859302048453862, guid: 84edcf22898bc784fbdb896bf20a8116,
        type: 3}
      propertyPath: m_LocalPosition.z
      value: -1.58
      objectReference: {fileID: 0}
    - target: {fileID: -4216859302048453862, guid: 84edcf22898bc784fbdb896bf20a8116,
        type: 3}
      propertyPath: m_LocalRotation.x
      value: -0
      objectReference: {fileID: 0}
    - target: {fileID: -4216859302048453862, guid: 84edcf22898bc784fbdb896bf20a8116,
        type: 3}
      propertyPath: m_LocalRotation.y
      value: 0.3123262
      objectReference: {fileID: 0}
    - target: {fileID: -4216859302048453862, guid: 84edcf22898bc784fbdb896bf20a8116,
        type: 3}
      propertyPath: m_LocalRotation.z
      value: -0
      objectReference: {fileID: 0}
    - target: {fileID: -4216859302048453862, guid: 84edcf22898bc784fbdb896bf20a8116,
        type: 3}
      propertyPath: m_LocalRotation.w
      value: 0.9499749
      objectReference: {fileID: 0}
    - target: {fileID: -4216859302048453862, guid: 84edcf22898bc784fbdb896bf20a8116,
        type: 3}
      propertyPath: m_RootOrder
      value: 6
      objectReference: {fileID: 0}
    - target: {fileID: -4216859302048453862, guid: 84edcf22898bc784fbdb896bf20a8116,
        type: 3}
      propertyPath: m_LocalEulerAnglesHint.x
      value: 0
      objectReference: {fileID: 0}
    - target: {fileID: -4216859302048453862, guid: 84edcf22898bc784fbdb896bf20a8116,
        type: 3}
      propertyPath: m_LocalEulerAnglesHint.y
      value: 36.399002
      objectReference: {fileID: 0}
    - target: {fileID: -4216859302048453862, guid: 84edcf22898bc784fbdb896bf20a8116,
        type: 3}
      propertyPath: m_LocalEulerAnglesHint.z
      value: 0
      objectReference: {fileID: 0}
    - target: {fileID: -927199367670048503, guid: 84edcf22898bc784fbdb896bf20a8116,
        type: 3}
      propertyPath: m_Name
      value: Chair
      objectReference: {fileID: 0}
    - target: {fileID: -927199367670048503, guid: 84edcf22898bc784fbdb896bf20a8116,
        type: 3}
      propertyPath: m_StaticEditorFlags
      value: 4294967295
      objectReference: {fileID: 0}
    m_RemovedComponents: []
  m_SourcePrefab: {fileID: 100100000, guid: 84edcf22898bc784fbdb896bf20a8116, type: 3}
--- !u!1001 &85050390
PrefabInstance:
  m_ObjectHideFlags: 0
  serializedVersion: 2
  m_Modification:
    m_TransformParent: {fileID: 0}
    m_Modifications:
    - target: {fileID: -4216859302048453862, guid: b6c14f40e3fc6f44c995abb5021235b7,
        type: 3}
      propertyPath: m_LocalPosition.x
      value: -0.784
      objectReference: {fileID: 0}
    - target: {fileID: -4216859302048453862, guid: b6c14f40e3fc6f44c995abb5021235b7,
        type: 3}
      propertyPath: m_LocalPosition.y
      value: 0
      objectReference: {fileID: 0}
    - target: {fileID: -4216859302048453862, guid: b6c14f40e3fc6f44c995abb5021235b7,
        type: 3}
      propertyPath: m_LocalPosition.z
      value: -4.59
      objectReference: {fileID: 0}
    - target: {fileID: -4216859302048453862, guid: b6c14f40e3fc6f44c995abb5021235b7,
        type: 3}
      propertyPath: m_LocalRotation.x
      value: 0
      objectReference: {fileID: 0}
    - target: {fileID: -4216859302048453862, guid: b6c14f40e3fc6f44c995abb5021235b7,
        type: 3}
      propertyPath: m_LocalRotation.y
      value: -0
      objectReference: {fileID: 0}
    - target: {fileID: -4216859302048453862, guid: b6c14f40e3fc6f44c995abb5021235b7,
        type: 3}
      propertyPath: m_LocalRotation.z
      value: -0
      objectReference: {fileID: 0}
    - target: {fileID: -4216859302048453862, guid: b6c14f40e3fc6f44c995abb5021235b7,
        type: 3}
      propertyPath: m_LocalRotation.w
      value: 1
      objectReference: {fileID: 0}
    - target: {fileID: -4216859302048453862, guid: b6c14f40e3fc6f44c995abb5021235b7,
        type: 3}
      propertyPath: m_RootOrder
      value: 8
      objectReference: {fileID: 0}
    - target: {fileID: -4216859302048453862, guid: b6c14f40e3fc6f44c995abb5021235b7,
        type: 3}
      propertyPath: m_LocalEulerAnglesHint.x
      value: 0
      objectReference: {fileID: 0}
    - target: {fileID: -4216859302048453862, guid: b6c14f40e3fc6f44c995abb5021235b7,
        type: 3}
      propertyPath: m_LocalEulerAnglesHint.y
      value: 0
      objectReference: {fileID: 0}
    - target: {fileID: -4216859302048453862, guid: b6c14f40e3fc6f44c995abb5021235b7,
        type: 3}
      propertyPath: m_LocalEulerAnglesHint.z
      value: 0
      objectReference: {fileID: 0}
    - target: {fileID: -927199367670048503, guid: b6c14f40e3fc6f44c995abb5021235b7,
        type: 3}
      propertyPath: m_Name
      value: Cloth
      objectReference: {fileID: 0}
    - target: {fileID: -927199367670048503, guid: b6c14f40e3fc6f44c995abb5021235b7,
        type: 3}
      propertyPath: m_StaticEditorFlags
      value: 4294967295
      objectReference: {fileID: 0}
    m_RemovedComponents: []
  m_SourcePrefab: {fileID: 100100000, guid: b6c14f40e3fc6f44c995abb5021235b7, type: 3}
--- !u!1001 &197488673
PrefabInstance:
  m_ObjectHideFlags: 0
  serializedVersion: 2
  m_Modification:
    m_TransformParent: {fileID: 0}
    m_Modifications:
    - target: {fileID: -4216859302048453862, guid: ea867774deb279d49a24f63a182a0855,
        type: 3}
      propertyPath: m_LocalPosition.x
      value: 1.699
      objectReference: {fileID: 0}
    - target: {fileID: -4216859302048453862, guid: ea867774deb279d49a24f63a182a0855,
        type: 3}
      propertyPath: m_LocalPosition.y
      value: 0.399061
      objectReference: {fileID: 0}
    - target: {fileID: -4216859302048453862, guid: ea867774deb279d49a24f63a182a0855,
        type: 3}
      propertyPath: m_LocalPosition.z
      value: 0.533
      objectReference: {fileID: 0}
    - target: {fileID: -4216859302048453862, guid: ea867774deb279d49a24f63a182a0855,
        type: 3}
      propertyPath: m_LocalRotation.x
      value: -0
      objectReference: {fileID: 0}
    - target: {fileID: -4216859302048453862, guid: ea867774deb279d49a24f63a182a0855,
        type: 3}
      propertyPath: m_LocalRotation.y
      value: -0.7509318
      objectReference: {fileID: 0}
    - target: {fileID: -4216859302048453862, guid: ea867774deb279d49a24f63a182a0855,
        type: 3}
      propertyPath: m_LocalRotation.z
      value: -0
      objectReference: {fileID: 0}
    - target: {fileID: -4216859302048453862, guid: ea867774deb279d49a24f63a182a0855,
        type: 3}
      propertyPath: m_LocalRotation.w
      value: 0.6603797
      objectReference: {fileID: 0}
    - target: {fileID: -4216859302048453862, guid: ea867774deb279d49a24f63a182a0855,
        type: 3}
      propertyPath: m_RootOrder
      value: 10
      objectReference: {fileID: 0}
    - target: {fileID: -4216859302048453862, guid: ea867774deb279d49a24f63a182a0855,
        type: 3}
      propertyPath: m_LocalEulerAnglesHint.x
      value: 0
      objectReference: {fileID: 0}
    - target: {fileID: -4216859302048453862, guid: ea867774deb279d49a24f63a182a0855,
        type: 3}
      propertyPath: m_LocalEulerAnglesHint.y
      value: -97.342
      objectReference: {fileID: 0}
    - target: {fileID: -4216859302048453862, guid: ea867774deb279d49a24f63a182a0855,
        type: 3}
      propertyPath: m_LocalEulerAnglesHint.z
      value: 0
      objectReference: {fileID: 0}
    - target: {fileID: -927199367670048503, guid: ea867774deb279d49a24f63a182a0855,
        type: 3}
      propertyPath: m_Name
      value: Drawers
      objectReference: {fileID: 0}
    - target: {fileID: -927199367670048503, guid: ea867774deb279d49a24f63a182a0855,
        type: 3}
      propertyPath: m_StaticEditorFlags
      value: 4294967295
      objectReference: {fileID: 0}
    m_RemovedComponents: []
  m_SourcePrefab: {fileID: 100100000, guid: ea867774deb279d49a24f63a182a0855, type: 3}
--- !u!1 &483027178
GameObject:
  m_ObjectHideFlags: 0
  m_CorrespondingSourceObject: {fileID: 0}
  m_PrefabInstance: {fileID: 0}
  m_PrefabAsset: {fileID: 0}
  serializedVersion: 6
  m_Component:
  - component: {fileID: 483027182}
  - component: {fileID: 483027181}
  - component: {fileID: 483027180}
  - component: {fileID: 483027179}
  m_Layer: 0
  m_Name: LightBlocker
  m_TagString: Untagged
  m_Icon: {fileID: 0}
  m_NavMeshLayer: 0
  m_StaticEditorFlags: 4294967295
  m_IsActive: 1
--- !u!64 &483027179
MeshCollider:
  m_ObjectHideFlags: 0
  m_CorrespondingSourceObject: {fileID: 0}
  m_PrefabInstance: {fileID: 0}
  m_PrefabAsset: {fileID: 0}
  m_GameObject: {fileID: 483027178}
  m_Material: {fileID: 0}
  m_IsTrigger: 0
  m_Enabled: 1
  serializedVersion: 4
  m_Convex: 0
  m_CookingOptions: 30
  m_Mesh: {fileID: 10209, guid: 0000000000000000e000000000000000, type: 0}
--- !u!23 &483027180
MeshRenderer:
  m_ObjectHideFlags: 0
  m_CorrespondingSourceObject: {fileID: 0}
  m_PrefabInstance: {fileID: 0}
  m_PrefabAsset: {fileID: 0}
  m_GameObject: {fileID: 483027178}
  m_Enabled: 1
  m_CastShadows: 2
  m_ReceiveShadows: 1
  m_DynamicOccludee: 1
  m_MotionVectors: 1
  m_LightProbeUsage: 1
  m_ReflectionProbeUsage: 1
  m_RayTracingMode: 2
  m_RenderingLayerMask: 1
  m_RendererPriority: 0
  m_Materials:
  - {fileID: 10303, guid: 0000000000000000f000000000000000, type: 0}
  m_StaticBatchInfo:
    firstSubMesh: 0
    subMeshCount: 0
  m_StaticBatchRoot: {fileID: 0}
  m_ProbeAnchor: {fileID: 0}
  m_LightProbeVolumeOverride: {fileID: 0}
  m_ScaleInLightmap: 1
  m_ReceiveGI: 1
  m_PreserveUVs: 0
  m_IgnoreNormalsForChartDetection: 0
  m_ImportantGI: 0
  m_StitchLightmapSeams: 1
  m_SelectedEditorRenderState: 3
  m_MinimumChartSize: 4
  m_AutoUVMaxDistance: 0.5
  m_AutoUVMaxAngle: 89
  m_LightmapParameters: {fileID: 0}
  m_SortingLayerID: 0
  m_SortingLayer: 0
  m_SortingOrder: 0
--- !u!33 &483027181
MeshFilter:
  m_ObjectHideFlags: 0
  m_CorrespondingSourceObject: {fileID: 0}
  m_PrefabInstance: {fileID: 0}
  m_PrefabAsset: {fileID: 0}
  m_GameObject: {fileID: 483027178}
  m_Mesh: {fileID: 10209, guid: 0000000000000000e000000000000000, type: 0}
--- !u!4 &483027182
Transform:
  m_ObjectHideFlags: 0
  m_CorrespondingSourceObject: {fileID: 0}
  m_PrefabInstance: {fileID: 0}
  m_PrefabAsset: {fileID: 0}
  m_GameObject: {fileID: 483027178}
  m_LocalRotation: {x: -0.7071068, y: -0, z: -0, w: 0.7071068}
  m_LocalPosition: {x: 0.2885561, y: 0.81999993, z: 3.593}
  m_LocalScale: {x: 1, y: 1, z: 1}
  m_Children: []
  m_Father: {fileID: 0}
  m_RootOrder: 1
  m_LocalEulerAnglesHint: {x: -90, y: 0, z: 0}
--- !u!1001 &579393083
PrefabInstance:
  m_ObjectHideFlags: 0
  serializedVersion: 2
  m_Modification:
    m_TransformParent: {fileID: 0}
    m_Modifications:
    - target: {fileID: -8514516304819626524, guid: cf690517402b17f4ba1e623d78e97095,
        type: 3}
      propertyPath: m_StaticEditorFlags
      value: 4294967295
      objectReference: {fileID: 0}
    - target: {fileID: -4216859302048453862, guid: cf690517402b17f4ba1e623d78e97095,
        type: 3}
      propertyPath: m_LocalPosition.x
      value: 0.897
      objectReference: {fileID: 0}
    - target: {fileID: -4216859302048453862, guid: cf690517402b17f4ba1e623d78e97095,
        type: 3}
      propertyPath: m_LocalPosition.y
      value: 1.053
      objectReference: {fileID: 0}
    - target: {fileID: -4216859302048453862, guid: cf690517402b17f4ba1e623d78e97095,
        type: 3}
      propertyPath: m_LocalPosition.z
      value: -3.131
      objectReference: {fileID: 0}
    - target: {fileID: -4216859302048453862, guid: cf690517402b17f4ba1e623d78e97095,
        type: 3}
      propertyPath: m_LocalRotation.x
      value: -0
      objectReference: {fileID: 0}
    - target: {fileID: -4216859302048453862, guid: cf690517402b17f4ba1e623d78e97095,
        type: 3}
      propertyPath: m_LocalRotation.y
      value: -0.37035215
      objectReference: {fileID: 0}
    - target: {fileID: -4216859302048453862, guid: cf690517402b17f4ba1e623d78e97095,
        type: 3}
      propertyPath: m_LocalRotation.z
      value: -0
      objectReference: {fileID: 0}
    - target: {fileID: -4216859302048453862, guid: cf690517402b17f4ba1e623d78e97095,
        type: 3}
      propertyPath: m_LocalRotation.w
      value: 0.9288914
      objectReference: {fileID: 0}
    - target: {fileID: -4216859302048453862, guid: cf690517402b17f4ba1e623d78e97095,
        type: 3}
      propertyPath: m_RootOrder
      value: 15
      objectReference: {fileID: 0}
    - target: {fileID: -4216859302048453862, guid: cf690517402b17f4ba1e623d78e97095,
        type: 3}
      propertyPath: m_LocalEulerAnglesHint.x
      value: 0
      objectReference: {fileID: 0}
    - target: {fileID: -4216859302048453862, guid: cf690517402b17f4ba1e623d78e97095,
        type: 3}
      propertyPath: m_LocalEulerAnglesHint.y
      value: -43.475002
      objectReference: {fileID: 0}
    - target: {fileID: -4216859302048453862, guid: cf690517402b17f4ba1e623d78e97095,
        type: 3}
      propertyPath: m_LocalEulerAnglesHint.z
      value: 0
      objectReference: {fileID: 0}
    - target: {fileID: -1659633139430364278, guid: cf690517402b17f4ba1e623d78e97095,
        type: 3}
      propertyPath: m_StaticEditorFlags
      value: 4294967295
      objectReference: {fileID: 0}
    - target: {fileID: -927199367670048503, guid: cf690517402b17f4ba1e623d78e97095,
        type: 3}
      propertyPath: m_Name
      value: Pokeball (1)
      objectReference: {fileID: 0}
    - target: {fileID: -927199367670048503, guid: cf690517402b17f4ba1e623d78e97095,
        type: 3}
      propertyPath: m_StaticEditorFlags
      value: 4294967295
      objectReference: {fileID: 0}
    - target: {fileID: 2509610823045119112, guid: cf690517402b17f4ba1e623d78e97095,
        type: 3}
      propertyPath: m_Materials.Array.data[0]
      value: 
      objectReference: {fileID: 2100000, guid: c9d44758bf6453543a0ade502d39190c, type: 2}
    - target: {fileID: 5337780351802469006, guid: cf690517402b17f4ba1e623d78e97095,
        type: 3}
      propertyPath: m_StaticEditorFlags
      value: 4294967295
      objectReference: {fileID: 0}
    m_RemovedComponents: []
  m_SourcePrefab: {fileID: 100100000, guid: cf690517402b17f4ba1e623d78e97095, type: 3}
--- !u!1001 &947049106
PrefabInstance:
  m_ObjectHideFlags: 0
  serializedVersion: 2
  m_Modification:
    m_TransformParent: {fileID: 0}
    m_Modifications:
    - target: {fileID: -4216859302048453862, guid: 63908c6369b078344a4591087f557888,
        type: 3}
      propertyPath: m_LocalPosition.x
      value: -0.53
      objectReference: {fileID: 0}
    - target: {fileID: -4216859302048453862, guid: 63908c6369b078344a4591087f557888,
        type: 3}
      propertyPath: m_LocalPosition.y
      value: 0.06263788
      objectReference: {fileID: 0}
    - target: {fileID: -4216859302048453862, guid: 63908c6369b078344a4591087f557888,
        type: 3}
      propertyPath: m_LocalPosition.z
      value: 1.12
      objectReference: {fileID: 0}
    - target: {fileID: -4216859302048453862, guid: 63908c6369b078344a4591087f557888,
        type: 3}
      propertyPath: m_LocalRotation.x
      value: 0
      objectReference: {fileID: 0}
    - target: {fileID: -4216859302048453862, guid: 63908c6369b078344a4591087f557888,
        type: 3}
      propertyPath: m_LocalRotation.y
      value: -0
      objectReference: {fileID: 0}
    - target: {fileID: -4216859302048453862, guid: 63908c6369b078344a4591087f557888,
        type: 3}
      propertyPath: m_LocalRotation.z
      value: -0
      objectReference: {fileID: 0}
    - target: {fileID: -4216859302048453862, guid: 63908c6369b078344a4591087f557888,
        type: 3}
      propertyPath: m_LocalRotation.w
      value: 1
      objectReference: {fileID: 0}
    - target: {fileID: -4216859302048453862, guid: 63908c6369b078344a4591087f557888,
        type: 3}
      propertyPath: m_RootOrder
      value: 5
      objectReference: {fileID: 0}
    - target: {fileID: -4216859302048453862, guid: 63908c6369b078344a4591087f557888,
        type: 3}
      propertyPath: m_LocalEulerAnglesHint.x
      value: 0
      objectReference: {fileID: 0}
    - target: {fileID: -4216859302048453862, guid: 63908c6369b078344a4591087f557888,
        type: 3}
      propertyPath: m_LocalEulerAnglesHint.y
      value: 0
      objectReference: {fileID: 0}
    - target: {fileID: -4216859302048453862, guid: 63908c6369b078344a4591087f557888,
        type: 3}
      propertyPath: m_LocalEulerAnglesHint.z
      value: 0
      objectReference: {fileID: 0}
    - target: {fileID: -1504981713932161579, guid: 63908c6369b078344a4591087f557888,
        type: 3}
      propertyPath: m_CastShadows
      value: 1
      objectReference: {fileID: 0}
    - target: {fileID: -927199367670048503, guid: 63908c6369b078344a4591087f557888,
        type: 3}
      propertyPath: m_Name
      value: Carpet
      objectReference: {fileID: 0}
    - target: {fileID: -927199367670048503, guid: 63908c6369b078344a4591087f557888,
        type: 3}
      propertyPath: m_StaticEditorFlags
      value: 4294967295
      objectReference: {fileID: 0}
    m_RemovedComponents: []
  m_SourcePrefab: {fileID: 100100000, guid: 63908c6369b078344a4591087f557888, type: 3}
--- !u!1001 &1084816019
PrefabInstance:
  m_ObjectHideFlags: 0
  serializedVersion: 2
  m_Modification:
    m_TransformParent: {fileID: 0}
    m_Modifications:
    - target: {fileID: -8514516304819626524, guid: cf690517402b17f4ba1e623d78e97095,
        type: 3}
      propertyPath: m_StaticEditorFlags
      value: 4294967295
      objectReference: {fileID: 0}
    - target: {fileID: -4216859302048453862, guid: cf690517402b17f4ba1e623d78e97095,
        type: 3}
      propertyPath: m_LocalPosition.x
      value: 1.271
      objectReference: {fileID: 0}
    - target: {fileID: -4216859302048453862, guid: cf690517402b17f4ba1e623d78e97095,
        type: 3}
      propertyPath: m_LocalPosition.y
      value: 1.053
      objectReference: {fileID: 0}
    - target: {fileID: -4216859302048453862, guid: cf690517402b17f4ba1e623d78e97095,
        type: 3}
      propertyPath: m_LocalPosition.z
      value: -2.737
      objectReference: {fileID: 0}
    - target: {fileID: -4216859302048453862, guid: cf690517402b17f4ba1e623d78e97095,
        type: 3}
      propertyPath: m_LocalRotation.x
      value: -0
      objectReference: {fileID: 0}
    - target: {fileID: -4216859302048453862, guid: cf690517402b17f4ba1e623d78e97095,
        type: 3}
      propertyPath: m_LocalRotation.y
      value: -0.37035215
      objectReference: {fileID: 0}
    - target: {fileID: -4216859302048453862, guid: cf690517402b17f4ba1e623d78e97095,
        type: 3}
      propertyPath: m_LocalRotation.z
      value: -0
      objectReference: {fileID: 0}
    - target: {fileID: -4216859302048453862, guid: cf690517402b17f4ba1e623d78e97095,
        type: 3}
      propertyPath: m_LocalRotation.w
      value: 0.9288914
      objectReference: {fileID: 0}
    - target: {fileID: -4216859302048453862, guid: cf690517402b17f4ba1e623d78e97095,
        type: 3}
      propertyPath: m_RootOrder
      value: 14
      objectReference: {fileID: 0}
    - target: {fileID: -4216859302048453862, guid: cf690517402b17f4ba1e623d78e97095,
        type: 3}
      propertyPath: m_LocalEulerAnglesHint.x
      value: 0
      objectReference: {fileID: 0}
    - target: {fileID: -4216859302048453862, guid: cf690517402b17f4ba1e623d78e97095,
        type: 3}
      propertyPath: m_LocalEulerAnglesHint.y
      value: -43.475002
      objectReference: {fileID: 0}
    - target: {fileID: -4216859302048453862, guid: cf690517402b17f4ba1e623d78e97095,
        type: 3}
      propertyPath: m_LocalEulerAnglesHint.z
      value: 0
      objectReference: {fileID: 0}
    - target: {fileID: -1659633139430364278, guid: cf690517402b17f4ba1e623d78e97095,
        type: 3}
      propertyPath: m_StaticEditorFlags
      value: 4294967295
      objectReference: {fileID: 0}
    - target: {fileID: -927199367670048503, guid: cf690517402b17f4ba1e623d78e97095,
        type: 3}
      propertyPath: m_Name
      value: Pokeball
      objectReference: {fileID: 0}
    - target: {fileID: -927199367670048503, guid: cf690517402b17f4ba1e623d78e97095,
        type: 3}
      propertyPath: m_StaticEditorFlags
      value: 4294967295
      objectReference: {fileID: 0}
    - target: {fileID: 2509610823045119112, guid: cf690517402b17f4ba1e623d78e97095,
        type: 3}
      propertyPath: m_Materials.Array.data[0]
      value: 
      objectReference: {fileID: 2100000, guid: c9d44758bf6453543a0ade502d39190c, type: 2}
    - target: {fileID: 5337780351802469006, guid: cf690517402b17f4ba1e623d78e97095,
        type: 3}
      propertyPath: m_StaticEditorFlags
      value: 4294967295
      objectReference: {fileID: 0}
    m_RemovedComponents: []
  m_SourcePrefab: {fileID: 100100000, guid: cf690517402b17f4ba1e623d78e97095, type: 3}
--- !u!1 &1138898823
GameObject:
  m_ObjectHideFlags: 0
  m_CorrespondingSourceObject: {fileID: 0}
  m_PrefabInstance: {fileID: 0}
  m_PrefabAsset: {fileID: 0}
  serializedVersion: 6
  m_Component:
  - component: {fileID: 1138898826}
  - component: {fileID: 1138898825}
  - component: {fileID: 1138898824}
  m_Layer: 0
  m_Name: Main Camera
  m_TagString: MainCamera
  m_Icon: {fileID: 0}
  m_NavMeshLayer: 0
  m_StaticEditorFlags: 0
  m_IsActive: 1
--- !u!81 &1138898824
AudioListener:
  m_ObjectHideFlags: 0
  m_CorrespondingSourceObject: {fileID: 0}
  m_PrefabInstance: {fileID: 0}
  m_PrefabAsset: {fileID: 0}
  m_GameObject: {fileID: 1138898823}
  m_Enabled: 1
--- !u!20 &1138898825
Camera:
  m_ObjectHideFlags: 0
  m_CorrespondingSourceObject: {fileID: 0}
  m_PrefabInstance: {fileID: 0}
  m_PrefabAsset: {fileID: 0}
  m_GameObject: {fileID: 1138898823}
  m_Enabled: 1
  serializedVersion: 2
  m_ClearFlags: 1
  m_BackGroundColor: {r: 0.19215687, g: 0.3019608, b: 0.4745098, a: 0}
  m_projectionMatrixMode: 1
  m_GateFitMode: 2
  m_FOVAxisMode: 0
  m_SensorSize: {x: 36, y: 24}
  m_LensShift: {x: 0, y: 0}
  m_FocalLength: 50
  m_NormalizedViewPortRect:
    serializedVersion: 2
    x: 0
    y: 0
    width: 1
    height: 1
  near clip plane: 0.3
  far clip plane: 1000
  field of view: 40
  orthographic: 0
  orthographic size: 5
  m_Depth: -1
  m_CullingMask:
    serializedVersion: 2
    m_Bits: 4294967295
  m_RenderingPath: -1
  m_TargetTexture: {fileID: 0}
  m_TargetDisplay: 0
  m_TargetEye: 3
  m_HDR: 1
  m_AllowMSAA: 0
  m_AllowDynamicResolution: 0
  m_ForceIntoRT: 0
  m_OcclusionCulling: 1
  m_StereoConvergence: 10
  m_StereoSeparation: 0.022
--- !u!4 &1138898826
Transform:
  m_ObjectHideFlags: 0
  m_CorrespondingSourceObject: {fileID: 0}
  m_PrefabInstance: {fileID: 0}
  m_PrefabAsset: {fileID: 0}
  m_GameObject: {fileID: 1138898823}
  m_LocalRotation: {x: 0, y: 0, z: 0, w: 1}
  m_LocalPosition: {x: 0, y: 0, z: -10}
  m_LocalScale: {x: 1, y: 1, z: 1}
  m_Children: []
  m_Father: {fileID: 0}
  m_RootOrder: 0
  m_LocalEulerAnglesHint: {x: 0, y: 0, z: 0}
--- !u!1001 &1308203279
PrefabInstance:
  m_ObjectHideFlags: 0
  serializedVersion: 2
  m_Modification:
    m_TransformParent: {fileID: 0}
    m_Modifications:
    - target: {fileID: -6423809108961520845, guid: 2a1ea4d508a197c498b2b4122c2d33a2,
        type: 3}
      propertyPath: m_Materials.Array.data[0]
      value: 
      objectReference: {fileID: 2100000, guid: 165a16df27e359e43ba909bbad50752e, type: 2}
    - target: {fileID: -4216859302048453862, guid: 2a1ea4d508a197c498b2b4122c2d33a2,
        type: 3}
      propertyPath: m_LocalPosition.x
      value: -2.05
      objectReference: {fileID: 0}
    - target: {fileID: -4216859302048453862, guid: 2a1ea4d508a197c498b2b4122c2d33a2,
        type: 3}
      propertyPath: m_LocalPosition.y
      value: 0.91418976
      objectReference: {fileID: 0}
    - target: {fileID: -4216859302048453862, guid: 2a1ea4d508a197c498b2b4122c2d33a2,
        type: 3}
      propertyPath: m_LocalPosition.z
      value: -1.113
      objectReference: {fileID: 0}
    - target: {fileID: -4216859302048453862, guid: 2a1ea4d508a197c498b2b4122c2d33a2,
        type: 3}
      propertyPath: m_LocalRotation.x
      value: 0
      objectReference: {fileID: 0}
    - target: {fileID: -4216859302048453862, guid: 2a1ea4d508a197c498b2b4122c2d33a2,
        type: 3}
      propertyPath: m_LocalRotation.y
      value: -0
      objectReference: {fileID: 0}
    - target: {fileID: -4216859302048453862, guid: 2a1ea4d508a197c498b2b4122c2d33a2,
        type: 3}
      propertyPath: m_LocalRotation.z
      value: -0
      objectReference: {fileID: 0}
    - target: {fileID: -4216859302048453862, guid: 2a1ea4d508a197c498b2b4122c2d33a2,
        type: 3}
      propertyPath: m_LocalRotation.w
      value: 1
      objectReference: {fileID: 0}
    - target: {fileID: -4216859302048453862, guid: 2a1ea4d508a197c498b2b4122c2d33a2,
        type: 3}
      propertyPath: m_RootOrder
      value: 11
      objectReference: {fileID: 0}
    - target: {fileID: -4216859302048453862, guid: 2a1ea4d508a197c498b2b4122c2d33a2,
        type: 3}
      propertyPath: m_LocalEulerAnglesHint.x
      value: 0
      objectReference: {fileID: 0}
    - target: {fileID: -4216859302048453862, guid: 2a1ea4d508a197c498b2b4122c2d33a2,
        type: 3}
      propertyPath: m_LocalEulerAnglesHint.y
      value: 0
      objectReference: {fileID: 0}
    - target: {fileID: -4216859302048453862, guid: 2a1ea4d508a197c498b2b4122c2d33a2,
        type: 3}
      propertyPath: m_LocalEulerAnglesHint.z
      value: 0
      objectReference: {fileID: 0}
    - target: {fileID: -927199367670048503, guid: 2a1ea4d508a197c498b2b4122c2d33a2,
        type: 3}
      propertyPath: m_Name
      value: Lamp
      objectReference: {fileID: 0}
    - target: {fileID: -927199367670048503, guid: 2a1ea4d508a197c498b2b4122c2d33a2,
        type: 3}
      propertyPath: m_StaticEditorFlags
      value: 4294967295
      objectReference: {fileID: 0}
    - target: {fileID: 1714384207064924985, guid: 2a1ea4d508a197c498b2b4122c2d33a2,
        type: 3}
      propertyPath: m_Materials.Array.data[0]
      value: 
      objectReference: {fileID: 2100000, guid: 4ffb05e3791eaaa48863db3fdbf91113, type: 2}
    - target: {fileID: 4174013548764050507, guid: 2a1ea4d508a197c498b2b4122c2d33a2,
        type: 3}
      propertyPath: m_StaticEditorFlags
      value: 4294967295
      objectReference: {fileID: 0}
    - target: {fileID: 9098452230737445730, guid: 2a1ea4d508a197c498b2b4122c2d33a2,
        type: 3}
      propertyPath: m_StaticEditorFlags
      value: 4294967295
      objectReference: {fileID: 0}
    m_RemovedComponents: []
  m_SourcePrefab: {fileID: 100100000, guid: 2a1ea4d508a197c498b2b4122c2d33a2, type: 3}
--- !u!1001 &1338858746
PrefabInstance:
  m_ObjectHideFlags: 0
  serializedVersion: 2
  m_Modification:
    m_TransformParent: {fileID: 0}
    m_Modifications:
    - target: {fileID: -8909042745970220238, guid: 7ca2cbad08098974f9a6d45e7e0f2df1,
        type: 3}
      propertyPath: m_StaticEditorFlags
      value: 0
      objectReference: {fileID: 0}
    - target: {fileID: -4216859302048453862, guid: 7ca2cbad08098974f9a6d45e7e0f2df1,
        type: 3}
      propertyPath: m_LocalPosition.x
      value: 1.03
      objectReference: {fileID: 0}
    - target: {fileID: -4216859302048453862, guid: 7ca2cbad08098974f9a6d45e7e0f2df1,
        type: 3}
      propertyPath: m_LocalPosition.y
      value: 0.2648855
      objectReference: {fileID: 0}
    - target: {fileID: -4216859302048453862, guid: 7ca2cbad08098974f9a6d45e7e0f2df1,
        type: 3}
      propertyPath: m_LocalPosition.z
      value: 2
      objectReference: {fileID: 0}
    - target: {fileID: -4216859302048453862, guid: 7ca2cbad08098974f9a6d45e7e0f2df1,
        type: 3}
      propertyPath: m_LocalRotation.x
      value: 0
      objectReference: {fileID: 0}
    - target: {fileID: -4216859302048453862, guid: 7ca2cbad08098974f9a6d45e7e0f2df1,
        type: 3}
      propertyPath: m_LocalRotation.y
      value: -0.43270776
      objectReference: {fileID: 0}
    - target: {fileID: -4216859302048453862, guid: 7ca2cbad08098974f9a6d45e7e0f2df1,
        type: 3}
      propertyPath: m_LocalRotation.z
      value: -0
      objectReference: {fileID: 0}
    - target: {fileID: -4216859302048453862, guid: 7ca2cbad08098974f9a6d45e7e0f2df1,
        type: 3}
      propertyPath: m_LocalRotation.w
      value: 0.90153426
      objectReference: {fileID: 0}
    - target: {fileID: -4216859302048453862, guid: 7ca2cbad08098974f9a6d45e7e0f2df1,
        type: 3}
      propertyPath: m_RootOrder
      value: 3
      objectReference: {fileID: 0}
    - target: {fileID: -4216859302048453862, guid: 7ca2cbad08098974f9a6d45e7e0f2df1,
        type: 3}
      propertyPath: m_LocalEulerAnglesHint.x
      value: 0
      objectReference: {fileID: 0}
    - target: {fileID: -4216859302048453862, guid: 7ca2cbad08098974f9a6d45e7e0f2df1,
        type: 3}
      propertyPath: m_LocalEulerAnglesHint.y
      value: -51.279003
      objectReference: {fileID: 0}
    - target: {fileID: -4216859302048453862, guid: 7ca2cbad08098974f9a6d45e7e0f2df1,
        type: 3}
      propertyPath: m_LocalEulerAnglesHint.z
      value: 0
      objectReference: {fileID: 0}
    - target: {fileID: -927199367670048503, guid: 7ca2cbad08098974f9a6d45e7e0f2df1,
        type: 3}
      propertyPath: m_Name
      value: Bulbasaur
      objectReference: {fileID: 0}
    - target: {fileID: -927199367670048503, guid: 7ca2cbad08098974f9a6d45e7e0f2df1,
        type: 3}
      propertyPath: m_StaticEditorFlags
      value: 0
      objectReference: {fileID: 0}
    m_RemovedComponents: []
  m_SourcePrefab: {fileID: 100100000, guid: 7ca2cbad08098974f9a6d45e7e0f2df1, type: 3}
--- !u!1001 &1515091128
PrefabInstance:
  m_ObjectHideFlags: 0
  serializedVersion: 2
  m_Modification:
    m_TransformParent: {fileID: 0}
    m_Modifications:
    - target: {fileID: -4216859302048453862, guid: 8d36e03fe4369164ca7be3c438de06e8,
        type: 3}
      propertyPath: m_LocalPosition.x
      value: 1.253
      objectReference: {fileID: 0}
    - target: {fileID: -4216859302048453862, guid: 8d36e03fe4369164ca7be3c438de06e8,
        type: 3}
      propertyPath: m_LocalPosition.y
      value: 0.5394679
      objectReference: {fileID: 0}
    - target: {fileID: -4216859302048453862, guid: 8d36e03fe4369164ca7be3c438de06e8,
        type: 3}
      propertyPath: m_LocalPosition.z
      value: -2.767
      objectReference: {fileID: 0}
    - target: {fileID: -4216859302048453862, guid: 8d36e03fe4369164ca7be3c438de06e8,
        type: 3}
      propertyPath: m_LocalRotation.x
      value: -0
      objectReference: {fileID: 0}
    - target: {fileID: -4216859302048453862, guid: 8d36e03fe4369164ca7be3c438de06e8,
        type: 3}
      propertyPath: m_LocalRotation.y
      value: -0.38366675
      objectReference: {fileID: 0}
    - target: {fileID: -4216859302048453862, guid: 8d36e03fe4369164ca7be3c438de06e8,
        type: 3}
      propertyPath: m_LocalRotation.z
      value: -0
      objectReference: {fileID: 0}
    - target: {fileID: -4216859302048453862, guid: 8d36e03fe4369164ca7be3c438de06e8,
        type: 3}
      propertyPath: m_LocalRotation.w
      value: 0.9234716
      objectReference: {fileID: 0}
    - target: {fileID: -4216859302048453862, guid: 8d36e03fe4369164ca7be3c438de06e8,
        type: 3}
      propertyPath: m_RootOrder
      value: 9
      objectReference: {fileID: 0}
    - target: {fileID: -4216859302048453862, guid: 8d36e03fe4369164ca7be3c438de06e8,
        type: 3}
      propertyPath: m_LocalEulerAnglesHint.x
      value: 0
      objectReference: {fileID: 0}
    - target: {fileID: -4216859302048453862, guid: 8d36e03fe4369164ca7be3c438de06e8,
        type: 3}
      propertyPath: m_LocalEulerAnglesHint.y
      value: -45.122
      objectReference: {fileID: 0}
    - target: {fileID: -4216859302048453862, guid: 8d36e03fe4369164ca7be3c438de06e8,
        type: 3}
      propertyPath: m_LocalEulerAnglesHint.z
      value: 0
      objectReference: {fileID: 0}
    - target: {fileID: -927199367670048503, guid: 8d36e03fe4369164ca7be3c438de06e8,
        type: 3}
      propertyPath: m_Name
      value: Desk
      objectReference: {fileID: 0}
    - target: {fileID: -927199367670048503, guid: 8d36e03fe4369164ca7be3c438de06e8,
        type: 3}
      propertyPath: m_StaticEditorFlags
      value: 4294967295
      objectReference: {fileID: 0}
    m_RemovedComponents: []
  m_SourcePrefab: {fileID: 100100000, guid: 8d36e03fe4369164ca7be3c438de06e8, type: 3}
--- !u!1001 &1551738396
PrefabInstance:
  m_ObjectHideFlags: 0
  serializedVersion: 2
  m_Modification:
    m_TransformParent: {fileID: 0}
    m_Modifications:
    - target: {fileID: -8668863881783649361, guid: 456be2a4daed6fe4b90d718d92d010f0,
        type: 3}
      propertyPath: m_StaticEditorFlags
      value: 0
      objectReference: {fileID: 0}
    - target: {fileID: -4216859302048453862, guid: 456be2a4daed6fe4b90d718d92d010f0,
        type: 3}
      propertyPath: m_LocalPosition.x
      value: -1.6
      objectReference: {fileID: 0}
    - target: {fileID: -4216859302048453862, guid: 456be2a4daed6fe4b90d718d92d010f0,
        type: 3}
      propertyPath: m_LocalPosition.y
      value: 0.487
      objectReference: {fileID: 0}
    - target: {fileID: -4216859302048453862, guid: 456be2a4daed6fe4b90d718d92d010f0,
        type: 3}
      propertyPath: m_LocalPosition.z
      value: -1.529
      objectReference: {fileID: 0}
    - target: {fileID: -4216859302048453862, guid: 456be2a4daed6fe4b90d718d92d010f0,
        type: 3}
      propertyPath: m_LocalRotation.x
      value: -0
      objectReference: {fileID: 0}
    - target: {fileID: -4216859302048453862, guid: 456be2a4daed6fe4b90d718d92d010f0,
        type: 3}
      propertyPath: m_LocalRotation.y
      value: 0.25316298
      objectReference: {fileID: 0}
    - target: {fileID: -4216859302048453862, guid: 456be2a4daed6fe4b90d718d92d010f0,
        type: 3}
      propertyPath: m_LocalRotation.z
      value: -0
      objectReference: {fileID: 0}
    - target: {fileID: -4216859302048453862, guid: 456be2a4daed6fe4b90d718d92d010f0,
        type: 3}
      propertyPath: m_LocalRotation.w
      value: 0.9674237
      objectReference: {fileID: 0}
    - target: {fileID: -4216859302048453862, guid: 456be2a4daed6fe4b90d718d92d010f0,
        type: 3}
      propertyPath: m_RootOrder
      value: 12
      objectReference: {fileID: 0}
    - target: {fileID: -4216859302048453862, guid: 456be2a4daed6fe4b90d718d92d010f0,
        type: 3}
      propertyPath: m_LocalEulerAnglesHint.x
      value: 0
      objectReference: {fileID: 0}
    - target: {fileID: -4216859302048453862, guid: 456be2a4daed6fe4b90d718d92d010f0,
        type: 3}
      propertyPath: m_LocalEulerAnglesHint.y
      value: 29.330002
      objectReference: {fileID: 0}
    - target: {fileID: -4216859302048453862, guid: 456be2a4daed6fe4b90d718d92d010f0,
        type: 3}
      propertyPath: m_LocalEulerAnglesHint.z
      value: 0
      objectReference: {fileID: 0}
    - target: {fileID: -927199367670048503, guid: 456be2a4daed6fe4b90d718d92d010f0,
        type: 3}
      propertyPath: m_Name
      value: Squirtle
      objectReference: {fileID: 0}
    - target: {fileID: 901111127968957382, guid: 456be2a4daed6fe4b90d718d92d010f0,
        type: 3}
      propertyPath: m_StaticEditorFlags
      value: 0
      objectReference: {fileID: 0}
    - target: {fileID: 4335499232851120272, guid: 456be2a4daed6fe4b90d718d92d010f0,
        type: 3}
      propertyPath: m_StaticEditorFlags
      value: 0
      objectReference: {fileID: 0}
    - target: {fileID: 4939938679733943035, guid: 456be2a4daed6fe4b90d718d92d010f0,
        type: 3}
      propertyPath: m_StaticEditorFlags
      value: 0
      objectReference: {fileID: 0}
    - target: {fileID: 6916647938805462052, guid: 456be2a4daed6fe4b90d718d92d010f0,
        type: 3}
      propertyPath: m_StaticEditorFlags
      value: 0
      objectReference: {fileID: 0}
    m_RemovedComponents: []
  m_SourcePrefab: {fileID: 100100000, guid: 456be2a4daed6fe4b90d718d92d010f0, type: 3}
--- !u!1001 &1579513554
PrefabInstance:
  m_ObjectHideFlags: 0
  serializedVersion: 2
  m_Modification:
    m_TransformParent: {fileID: 0}
    m_Modifications:
    - target: {fileID: -4216859302048453862, guid: eee39bdb54ddc744a84080bae61950fa,
        type: 3}
      propertyPath: m_LocalPosition.x
      value: -0.13
      objectReference: {fileID: 0}
    - target: {fileID: -4216859302048453862, guid: eee39bdb54ddc744a84080bae61950fa,
        type: 3}
      propertyPath: m_LocalPosition.y
      value: 1.68
      objectReference: {fileID: 0}
    - target: {fileID: -4216859302048453862, guid: eee39bdb54ddc744a84080bae61950fa,
        type: 3}
      propertyPath: m_LocalPosition.z
      value: -5.605
      objectReference: {fileID: 0}
    - target: {fileID: -4216859302048453862, guid: eee39bdb54ddc744a84080bae61950fa,
        type: 3}
      propertyPath: m_LocalRotation.x
      value: 0
      objectReference: {fileID: 0}
    - target: {fileID: -4216859302048453862, guid: eee39bdb54ddc744a84080bae61950fa,
        type: 3}
      propertyPath: m_LocalRotation.y
      value: -0
      objectReference: {fileID: 0}
    - target: {fileID: -4216859302048453862, guid: eee39bdb54ddc744a84080bae61950fa,
        type: 3}
      propertyPath: m_LocalRotation.z
      value: -0
      objectReference: {fileID: 0}
    - target: {fileID: -4216859302048453862, guid: eee39bdb54ddc744a84080bae61950fa,
        type: 3}
      propertyPath: m_LocalRotation.w
      value: 1
      objectReference: {fileID: 0}
    - target: {fileID: -4216859302048453862, guid: eee39bdb54ddc744a84080bae61950fa,
        type: 3}
      propertyPath: m_RootOrder
      value: 13
      objectReference: {fileID: 0}
    - target: {fileID: -4216859302048453862, guid: eee39bdb54ddc744a84080bae61950fa,
        type: 3}
      propertyPath: m_LocalEulerAnglesHint.x
      value: 0
      objectReference: {fileID: 0}
    - target: {fileID: -4216859302048453862, guid: eee39bdb54ddc744a84080bae61950fa,
        type: 3}
      propertyPath: m_LocalEulerAnglesHint.y
      value: 0
      objectReference: {fileID: 0}
    - target: {fileID: -4216859302048453862, guid: eee39bdb54ddc744a84080bae61950fa,
        type: 3}
      propertyPath: m_LocalEulerAnglesHint.z
      value: 0
      objectReference: {fileID: 0}
    - target: {fileID: -927199367670048503, guid: eee39bdb54ddc744a84080bae61950fa,
        type: 3}
      propertyPath: m_Name
      value: TV
      objectReference: {fileID: 0}
    - target: {fileID: -927199367670048503, guid: eee39bdb54ddc744a84080bae61950fa,
        type: 3}
      propertyPath: m_StaticEditorFlags
      value: 4294967295
      objectReference: {fileID: 0}
    - target: {fileID: 1312858300678995388, guid: eee39bdb54ddc744a84080bae61950fa,
        type: 3}
      propertyPath: m_StaticEditorFlags
      value: 4294967295
      objectReference: {fileID: 0}
    m_RemovedComponents: []
  m_SourcePrefab: {fileID: 100100000, guid: eee39bdb54ddc744a84080bae61950fa, type: 3}
--- !u!1 &1618689346
GameObject:
  m_ObjectHideFlags: 0
  m_CorrespondingSourceObject: {fileID: 0}
  m_PrefabInstance: {fileID: 0}
  m_PrefabAsset: {fileID: 0}
  serializedVersion: 6
  m_Component:
  - component: {fileID: 1618689348}
  - component: {fileID: 1618689347}
  m_Layer: 0
  m_Name: Directional Light
  m_TagString: Untagged
  m_Icon: {fileID: 0}
  m_NavMeshLayer: 0
  m_StaticEditorFlags: 0
  m_IsActive: 1
--- !u!108 &1618689347
Light:
  m_ObjectHideFlags: 0
  m_CorrespondingSourceObject: {fileID: 0}
  m_PrefabInstance: {fileID: 0}
  m_PrefabAsset: {fileID: 0}
  m_GameObject: {fileID: 1618689346}
  m_Enabled: 1
  serializedVersion: 10
  m_Type: 1
  m_Shape: 0
  m_Color: {r: 1, g: 1, b: 1, a: 1}
  m_Intensity: 1
  m_Range: 10
  m_SpotAngle: 30
  m_InnerSpotAngle: 21.80208
  m_CookieSize: 10
  m_Shadows:
    m_Type: 0
    m_Resolution: -1
    m_CustomResolution: -1
    m_Strength: 1
    m_Bias: 0.05
    m_NormalBias: 0.4
    m_NearPlane: 0.2
    m_CullingMatrixOverride:
      e00: 1
      e01: 0
      e02: 0
      e03: 0
      e10: 0
      e11: 1
      e12: 0
      e13: 0
      e20: 0
      e21: 0
      e22: 1
      e23: 0
      e30: 0
      e31: 0
      e32: 0
      e33: 1
    m_UseCullingMatrixOverride: 0
  m_Cookie: {fileID: 0}
  m_DrawHalo: 0
  m_Flare: {fileID: 0}
  m_RenderMode: 0
  m_CullingMask:
    serializedVersion: 2
    m_Bits: 4294967295
  m_RenderingLayerMask: 1
  m_Lightmapping: 4
  m_LightShadowCasterMode: 0
  m_AreaSize: {x: 1, y: 1}
  m_BounceIntensity: 1
  m_ColorTemperature: 6570
  m_UseColorTemperature: 0
  m_BoundingSphereOverride: {x: 0, y: 0, z: 0, w: 0}
  m_UseBoundingSphereOverride: 0
  m_ShadowRadius: 0
  m_ShadowAngle: 0
--- !u!4 &1618689348
Transform:
  m_ObjectHideFlags: 0
  m_CorrespondingSourceObject: {fileID: 0}
  m_PrefabInstance: {fileID: 0}
  m_PrefabAsset: {fileID: 0}
  m_GameObject: {fileID: 1618689346}
  m_LocalRotation: {x: 0.40821788, y: -0.23456968, z: 0.10938163, w: 0.8754261}
  m_LocalPosition: {x: 0, y: 6.87, z: 0}
  m_LocalScale: {x: 1, y: 1, z: 1}
  m_Children: []
  m_Father: {fileID: 0}
  m_RootOrder: 17
  m_LocalEulerAnglesHint: {x: 50, y: -30, z: 0}
--- !u!1001 &1630731343
PrefabInstance:
  m_ObjectHideFlags: 0
  serializedVersion: 2
  m_Modification:
    m_TransformParent: {fileID: 0}
    m_Modifications:
    - target: {fileID: -4795306348945757442, guid: 954001d72457bdf40b4451787a6c3956,
        type: 3}
      propertyPath: m_StaticEditorFlags
      value: 4294967295
      objectReference: {fileID: 0}
    - target: {fileID: -4216859302048453862, guid: 954001d72457bdf40b4451787a6c3956,
        type: 3}
      propertyPath: m_LocalPosition.x
      value: 1.624
      objectReference: {fileID: 0}
    - target: {fileID: -4216859302048453862, guid: 954001d72457bdf40b4451787a6c3956,
        type: 3}
      propertyPath: m_LocalPosition.y
      value: 0.789
      objectReference: {fileID: 0}
    - target: {fileID: -4216859302048453862, guid: 954001d72457bdf40b4451787a6c3956,
        type: 3}
      propertyPath: m_LocalPosition.z
      value: 0.395
      objectReference: {fileID: 0}
    - target: {fileID: -4216859302048453862, guid: 954001d72457bdf40b4451787a6c3956,
        type: 3}
      propertyPath: m_LocalRotation.x
      value: 0
      objectReference: {fileID: 0}
    - target: {fileID: -4216859302048453862, guid: 954001d72457bdf40b4451787a6c3956,
        type: 3}
      propertyPath: m_LocalRotation.y
      value: -0
      objectReference: {fileID: 0}
    - target: {fileID: -4216859302048453862, guid: 954001d72457bdf40b4451787a6c3956,
        type: 3}
      propertyPath: m_LocalRotation.z
      value: -0
      objectReference: {fileID: 0}
    - target: {fileID: -4216859302048453862, guid: 954001d72457bdf40b4451787a6c3956,
        type: 3}
      propertyPath: m_LocalRotation.w
      value: 1
      objectReference: {fileID: 0}
    - target: {fileID: -4216859302048453862, guid: 954001d72457bdf40b4451787a6c3956,
        type: 3}
      propertyPath: m_RootOrder
      value: 4
      objectReference: {fileID: 0}
    - target: {fileID: -4216859302048453862, guid: 954001d72457bdf40b4451787a6c3956,
        type: 3}
      propertyPath: m_LocalEulerAnglesHint.x
      value: 0
      objectReference: {fileID: 0}
    - target: {fileID: -4216859302048453862, guid: 954001d72457bdf40b4451787a6c3956,
        type: 3}
      propertyPath: m_LocalEulerAnglesHint.y
      value: 0
      objectReference: {fileID: 0}
    - target: {fileID: -4216859302048453862, guid: 954001d72457bdf40b4451787a6c3956,
        type: 3}
      propertyPath: m_LocalEulerAnglesHint.z
      value: 0
      objectReference: {fileID: 0}
    - target: {fileID: -2735679282014033364, guid: 954001d72457bdf40b4451787a6c3956,
        type: 3}
      propertyPath: m_StaticEditorFlags
      value: 4294967295
      objectReference: {fileID: 0}
    - target: {fileID: -927199367670048503, guid: 954001d72457bdf40b4451787a6c3956,
        type: 3}
      propertyPath: m_Name
      value: Cactus
      objectReference: {fileID: 0}
    - target: {fileID: -927199367670048503, guid: 954001d72457bdf40b4451787a6c3956,
        type: 3}
      propertyPath: m_StaticEditorFlags
      value: 4294967295
      objectReference: {fileID: 0}
    m_RemovedComponents: []
  m_SourcePrefab: {fileID: 100100000, guid: 954001d72457bdf40b4451787a6c3956, type: 3}
--- !u!1001 &1804788808
PrefabInstance:
  m_ObjectHideFlags: 0
  serializedVersion: 2
  m_Modification:
    m_TransformParent: {fileID: 0}
    m_Modifications:
    - target: {fileID: -8514516304819626524, guid: cf690517402b17f4ba1e623d78e97095,
        type: 3}
      propertyPath: m_StaticEditorFlags
      value: 4294967295
      objectReference: {fileID: 0}
    - target: {fileID: -4216859302048453862, guid: cf690517402b17f4ba1e623d78e97095,
        type: 3}
      propertyPath: m_LocalPosition.x
      value: 1.641
      objectReference: {fileID: 0}
    - target: {fileID: -4216859302048453862, guid: cf690517402b17f4ba1e623d78e97095,
        type: 3}
      propertyPath: m_LocalPosition.y
      value: 1.053
      objectReference: {fileID: 0}
    - target: {fileID: -4216859302048453862, guid: cf690517402b17f4ba1e623d78e97095,
        type: 3}
      propertyPath: m_LocalPosition.z
      value: -2.363
      objectReference: {fileID: 0}
    - target: {fileID: -4216859302048453862, guid: cf690517402b17f4ba1e623d78e97095,
        type: 3}
      propertyPath: m_LocalRotation.x
      value: -0
      objectReference: {fileID: 0}
    - target: {fileID: -4216859302048453862, guid: cf690517402b17f4ba1e623d78e97095,
        type: 3}
      propertyPath: m_LocalRotation.y
      value: -0.37035215
      objectReference: {fileID: 0}
    - target: {fileID: -4216859302048453862, guid: cf690517402b17f4ba1e623d78e97095,
        type: 3}
      propertyPath: m_LocalRotation.z
      value: -0
      objectReference: {fileID: 0}
    - target: {fileID: -4216859302048453862, guid: cf690517402b17f4ba1e623d78e97095,
        type: 3}
      propertyPath: m_LocalRotation.w
      value: 0.9288914
      objectReference: {fileID: 0}
    - target: {fileID: -4216859302048453862, guid: cf690517402b17f4ba1e623d78e97095,
        type: 3}
      propertyPath: m_RootOrder
      value: 16
      objectReference: {fileID: 0}
    - target: {fileID: -4216859302048453862, guid: cf690517402b17f4ba1e623d78e97095,
        type: 3}
      propertyPath: m_LocalEulerAnglesHint.x
      value: 0
      objectReference: {fileID: 0}
    - target: {fileID: -4216859302048453862, guid: cf690517402b17f4ba1e623d78e97095,
        type: 3}
      propertyPath: m_LocalEulerAnglesHint.y
      value: -43.475002
      objectReference: {fileID: 0}
    - target: {fileID: -4216859302048453862, guid: cf690517402b17f4ba1e623d78e97095,
        type: 3}
      propertyPath: m_LocalEulerAnglesHint.z
      value: 0
      objectReference: {fileID: 0}
    - target: {fileID: -1659633139430364278, guid: cf690517402b17f4ba1e623d78e97095,
        type: 3}
      propertyPath: m_StaticEditorFlags
      value: 4294967295
      objectReference: {fileID: 0}
    - target: {fileID: -927199367670048503, guid: cf690517402b17f4ba1e623d78e97095,
        type: 3}
      propertyPath: m_Name
      value: Pokeball (2)
      objectReference: {fileID: 0}
    - target: {fileID: -927199367670048503, guid: cf690517402b17f4ba1e623d78e97095,
        type: 3}
      propertyPath: m_StaticEditorFlags
      value: 4294967295
      objectReference: {fileID: 0}
    - target: {fileID: 2509610823045119112, guid: cf690517402b17f4ba1e623d78e97095,
        type: 3}
      propertyPath: m_Materials.Array.data[0]
      value: 
      objectReference: {fileID: 2100000, guid: c9d44758bf6453543a0ade502d39190c, type: 2}
    - target: {fileID: 5337780351802469006, guid: cf690517402b17f4ba1e623d78e97095,
        type: 3}
      propertyPath: m_StaticEditorFlags
      value: 4294967295
      objectReference: {fileID: 0}
    m_RemovedComponents: []
  m_SourcePrefab: {fileID: 100100000, guid: cf690517402b17f4ba1e623d78e97095, type: 3}
--- !u!1001 &1817733533
PrefabInstance:
  m_ObjectHideFlags: 0
  serializedVersion: 2
  m_Modification:
    m_TransformParent: {fileID: 0}
    m_Modifications:
    - target: {fileID: -6615812584011609749, guid: 8f7d4dee61e4e284d97281412cbba987,
        type: 3}
      propertyPath: m_CastShadows
      value: 2
      objectReference: {fileID: 0}
    - target: {fileID: -4216859302048453862, guid: 8f7d4dee61e4e284d97281412cbba987,
        type: 3}
      propertyPath: m_LocalPosition.x
      value: -0.02354782
      objectReference: {fileID: 0}
    - target: {fileID: -4216859302048453862, guid: 8f7d4dee61e4e284d97281412cbba987,
        type: 3}
      propertyPath: m_LocalPosition.y
      value: 1.8328861
      objectReference: {fileID: 0}
    - target: {fileID: -4216859302048453862, guid: 8f7d4dee61e4e284d97281412cbba987,
        type: 3}
      propertyPath: m_LocalPosition.z
      value: -0.89151853
      objectReference: {fileID: 0}
    - target: {fileID: -4216859302048453862, guid: 8f7d4dee61e4e284d97281412cbba987,
        type: 3}
      propertyPath: m_LocalRotation.x
      value: 0
      objectReference: {fileID: 0}
    - target: {fileID: -4216859302048453862, guid: 8f7d4dee61e4e284d97281412cbba987,
        type: 3}
      propertyPath: m_LocalRotation.y
      value: -0
      objectReference: {fileID: 0}
    - target: {fileID: -4216859302048453862, guid: 8f7d4dee61e4e284d97281412cbba987,
        type: 3}
      propertyPath: m_LocalRotation.z
      value: -0
      objectReference: {fileID: 0}
    - target: {fileID: -4216859302048453862, guid: 8f7d4dee61e4e284d97281412cbba987,
        type: 3}
      propertyPath: m_LocalRotation.w
      value: 1
      objectReference: {fileID: 0}
    - target: {fileID: -4216859302048453862, guid: 8f7d4dee61e4e284d97281412cbba987,
        type: 3}
      propertyPath: m_RootOrder
      value: 2
      objectReference: {fileID: 0}
    - target: {fileID: -4216859302048453862, guid: 8f7d4dee61e4e284d97281412cbba987,
        type: 3}
      propertyPath: m_LocalEulerAnglesHint.x
      value: 0
      objectReference: {fileID: 0}
    - target: {fileID: -4216859302048453862, guid: 8f7d4dee61e4e284d97281412cbba987,
        type: 3}
      propertyPath: m_LocalEulerAnglesHint.y
      value: 0
      objectReference: {fileID: 0}
    - target: {fileID: -4216859302048453862, guid: 8f7d4dee61e4e284d97281412cbba987,
        type: 3}
      propertyPath: m_LocalEulerAnglesHint.z
      value: 0
      objectReference: {fileID: 0}
    - target: {fileID: -4130860028541575715, guid: 8f7d4dee61e4e284d97281412cbba987,
        type: 3}
      propertyPath: m_StaticEditorFlags
      value: 4294967295
      objectReference: {fileID: 0}
    - target: {fileID: -3592104821642794098, guid: 8f7d4dee61e4e284d97281412cbba987,
        type: 3}
      propertyPath: m_StaticEditorFlags
      value: 4294967295
      objectReference: {fileID: 0}
    - target: {fileID: -1482574089035298331, guid: 8f7d4dee61e4e284d97281412cbba987,
        type: 3}
      propertyPath: m_StaticEditorFlags
      value: 4294967295
      objectReference: {fileID: 0}
    - target: {fileID: -927199367670048503, guid: 8f7d4dee61e4e284d97281412cbba987,
        type: 3}
      propertyPath: m_Name
      value: Attic
      objectReference: {fileID: 0}
    - target: {fileID: -927199367670048503, guid: 8f7d4dee61e4e284d97281412cbba987,
        type: 3}
      propertyPath: m_StaticEditorFlags
      value: 4294967295
      objectReference: {fileID: 0}
    - target: {fileID: 8526722805296159819, guid: 8f7d4dee61e4e284d97281412cbba987,
        type: 3}
      propertyPath: m_StaticEditorFlags
      value: 4294967295
      objectReference: {fileID: 0}
    - target: {fileID: 8831798294230829002, guid: 8f7d4dee61e4e284d97281412cbba987,
        type: 3}
      propertyPath: m_CastShadows
      value: 2
      objectReference: {fileID: 0}
    m_RemovedComponents: []
  m_SourcePrefab: {fileID: 100100000, guid: 8f7d4dee61e4e284d97281412cbba987, type: 3}
